<?xml version="1.0" encoding="utf-8"?>
<!-- Created by sK1 2.0rc5 (https://sk1project.net/) -->
<svg xmlns="http://www.w3.org/2000/svg" height="16.0px" width="16.0px" version="1.1" xmlns:xlink="http://www.w3.org/1999/xlink" id="dbec5e88-93f8-11ea-a45f-94c691aada94">

<g>
	<path style="fill-opacity:0.0;fill:#000000;" d="M 8.5705,1.03 L 7.426,2.0104 10.008,5.0222 7.426,8.0359 8.5705,9.0085 11.0002,6.1765 13.428,9.0085 14.5725,8.0359 11.9905,5.0222 14.5725,2.0104 13.428,1.03 11.0002,3.864 8.5705,1.03 Z" />
	<path style="fill-opacity:0.0;fill:#000000;" d="M 7.0001,3.978 L 7.0001,5.978 15.0003,5.978 15.0003,3.978 7.0001,3.978 Z" />
	<path style="fill:#333333;" d="M 11.0,8.0 C 11.0,9.6566 9.6566,11.0 8.0,11.0 6.3434,11.0 5.0,9.6566 5.0,8.0 5.0,6.3434 6.3434,5.0 8.0,5.0 9.6566,5.0 11.0,6.3434 11.0,8.0 Z" />
</g>
</svg>