<?xml version="1.0" encoding="utf-8"?>
<!-- Created by sK1 2.0rc5 (https://sk1project.net/) -->
<svg xmlns="http://www.w3.org/2000/svg" height="1.0px" width="1.0px" version="1.1" xmlns:xlink="http://www.w3.org/1999/xlink" id="30b61256-93f9-11ea-ab58-94c691aada94">

<g>
</g>
</svg>